<svg width="32" height="31" viewBox="0 0 32 31" fill="none" xmlns="http://www.w3.org/2000/svg">
<path d="M31.112 12.0273L26.7882 0.732094C26.7882 0.732094 26.5773 0.313755 26.3663 0.20917C26.1554 0.104585 25.9445 0 25.7336 0C25.5227 0 25.3117 0 25.1008 0.20917C24.8899 0.313755 24.7845 0.522924 24.679 0.836679L21.7262 9.72639H9.91477L6.96192 0.836679C6.96192 0.836679 6.751 0.41834 6.54008 0.20917C6.32916 0.104585 6.11825 0 5.90733 0C5.69642 0 5.38004 0 5.27458 0.20917C5.06366 0.313755 4.9582 0.522924 4.85274 0.732094L0.528934 11.9227C-0.736572 15.374 0.318016 19.139 3.1654 21.2307L9.70385 26.1462L12.9731 28.5517L14.9768 30.0159C14.9768 30.0159 16.1368 30.3296 16.5587 30.0159L18.5624 28.5517L21.8316 26.1462L28.4755 21.2307C31.3229 19.0344 32.3775 15.374 31.112 12.0273Z" fill="white"/>
</svg>
