<svg width="99" height="30" viewBox="0 0 99 30" fill="none" xmlns="http://www.w3.org/2000/svg">
<path d="M70.5254 25.7719V10.026C70.5254 9.94476 70.4441 9.78227 70.3629 9.78227H70.2816L62.0593 12.1385C61.9781 12.1385 61.8968 12.301 61.8968 12.3822C61.8968 12.4635 61.8968 12.4635 61.9781 12.5285C62.888 13.2109 63.4893 14.2184 63.6193 15.3559V25.6094C63.6193 27.0231 62.8393 28.3231 61.5881 28.9893C61.5068 28.9893 61.4418 29.1518 61.4418 29.2331C61.4418 29.3143 61.5881 29.3793 61.6856 29.3793H72.8491C73.0115 29.3793 73.0928 29.2331 73.0115 29.0706C72.9303 28.9081 73.0115 28.9893 72.9303 28.9893C72.0203 28.4368 70.5254 27.2669 70.5254 25.7719ZM76.099 9.94476C74.1328 9.52227 72.2153 10.8385 71.9066 12.8372C71.8253 13.2434 71.8253 13.6822 71.9066 14.0884C72.5728 18.0858 78.2927 18.1508 79.0402 14.1697C79.3814 12.2035 78.0652 10.3185 76.099 9.94476ZM84.63 23.9682C84.63 22.4732 86.9862 20.2795 87.3762 19.9708C87.4575 19.8895 87.4575 19.8083 87.4575 19.662C87.3925 19.597 87.3112 19.5645 87.23 19.5808C85.1338 20.052 82.3388 20.5233 81.2664 21.1407C80.1939 21.7582 79.3164 22.8632 79.3164 25.0569C79.2677 27.7218 81.4289 29.883 84.0938 29.8343C86.125 29.8343 87.5875 28.0306 88.3187 27.0881C88.3999 27.0069 88.3187 26.9256 88.2374 26.8444H87.6037C86.0437 26.9094 84.7275 25.6744 84.695 24.0982C84.63 24.1307 84.63 24.0494 84.63 23.9682ZM80.9576 15.9084C80.8601 18.1021 83.4601 19.337 85.085 17.8421C86.71 16.3634 85.735 13.6497 83.5413 13.5522H83.3788C82.0626 13.5197 80.9739 14.5759 80.9576 15.9084ZM98.036 26.9419C98.036 27.0231 97.7272 27.4944 97.7272 27.5756C96.7522 29.1356 95.0298 30.0618 93.1773 29.9968C90.2849 29.9968 88.7899 28.3556 88.7899 25.1057V16.2821C88.7899 13.3897 86.9862 12.8372 83.4601 12.7559C83.3788 12.7559 83.3138 12.6747 83.2976 12.5935C83.2976 12.5447 83.3301 12.5122 83.3788 12.5122C84.5488 11.8135 86.4337 10.0098 89.1799 10.0098C93.8761 10.0098 95.4523 12.2847 95.4523 15.8921V25.2844C95.4523 26.5356 95.9885 26.9256 96.931 26.9256C97.2235 26.8931 97.516 26.8119 97.7922 26.6819C97.8735 26.6006 97.9547 26.6006 97.9547 26.6819C98.0197 26.7794 98.0522 26.8606 98.036 26.9419ZM37.2299 16.4446C37.2136 16.7534 36.9862 17.0133 36.6774 17.0783H27.8376C27.7564 17.0783 27.6914 17.0133 27.6751 16.9158C27.6751 16.8346 27.7564 16.7696 27.8376 16.7696L31.2663 15.9084C32.29 15.6646 31.4125 12.1547 30.0151 10.1885C29.9338 10.1073 30.0151 10.026 30.0963 10.026C34.76 10.3348 37.0024 13.1622 37.2299 16.4446ZM38.1886 22.9607C37.3274 27.0719 33.6712 29.9805 29.4788 29.9318C23.694 29.9318 20.2328 25.3007 20.2328 20.3608C20.2328 14.7709 23.759 10.8872 28.6826 10.026C28.7638 9.94476 28.8451 10.1073 28.8451 10.1885C27.5126 12.431 26.8301 15.0146 26.8789 17.6308C26.8789 22.717 29.3001 25.0732 32.9075 25.0732C35.4912 25.0732 36.9862 24.1307 37.9286 22.7982C38.0099 22.717 38.0749 22.6357 38.1724 22.717V22.9607H38.1886ZM60.8243 19.272C60.8243 24.5207 57.4607 29.0381 50.2458 29.7368H50.1158C50.0346 29.5905 50.0346 29.5093 50.1158 29.4281H50.1971C52.472 28.9568 53.8858 25.6744 53.8858 20.3608C53.8858 15.0471 51.3833 12.6097 48.9946 12.6097C48.5396 12.6097 48.0846 12.6909 47.6621 12.8372H47.5159C47.4347 12.8372 47.4347 12.7559 47.5159 12.6909L47.5972 12.5285C48.7671 11.5047 50.8796 10.1885 53.187 10.1885C58.0782 10.1073 60.8243 13.3247 60.8243 19.272ZM48.5234 29.6068C48.5234 29.7693 48.4421 29.7693 48.2796 29.7693C44.8347 29.5418 43.5023 28.8268 42.6248 28.2906C42.511 28.2093 42.3485 28.2093 42.2348 28.2906L39.4886 29.7693C39.1798 29.9318 39.1799 29.6068 39.1799 29.6068C39.5698 28.6643 39.8786 25.6094 39.8786 23.9682V5.83361C40.0086 4.87488 39.5698 3.93241 38.7736 3.41242L37.9936 2.94118C37.9936 2.94118 37.9124 2.94118 37.9124 2.79493C37.9124 2.64869 37.9124 2.71369 37.9936 2.71369L45.9072 0.324992C45.9884 0.324992 46.1509 0.40624 46.1509 0.487488V0.568737L46.2322 24.2932C46.2322 25.2357 46.5409 28.2906 48.3284 29.3793C48.3609 29.4443 48.5234 29.4443 48.5234 29.6068ZM0.570763 0V1.57621H2.13073V6.3536H3.77194V1.57621H5.3319V0H0.570763ZM12.0917 0H10.5155V2.42119H8.48433V0H6.90811V6.33735H8.48433V3.9974H10.5155V6.33735H12.0917V0ZM18.4291 1.57621V0H14.1229V6.33735H18.4291V4.77739H15.6829V3.9974H18.0391V2.42119H15.6829V1.55996H18.4291V1.57621ZM0.570763 17.9396C0.570763 18.1021 0.717009 18.1021 0.798257 18.0208C2.52072 14.4947 6.14438 11.3585 9.26431 10.4323C9.41055 10.351 9.34556 10.2698 9.26431 10.2698H1.042C0.798257 10.2698 0.570763 10.4323 0.570763 10.5785V17.9396ZM0.652012 29.3793H7.6231C7.78559 29.3793 7.93184 29.2981 8.01309 29.1518L18.4291 10.741C18.4941 10.5947 18.4291 10.416 18.2828 10.351H11.5393C11.4255 10.3673 11.3118 10.4323 11.2305 10.5135L0.570763 29.2493C0.489515 29.2168 0.570763 29.3793 0.652012 29.3793ZM18.4291 21.6932C18.4291 21.5307 18.2828 21.5307 18.2016 21.612C16.3979 25.1057 12.8717 28.2743 9.63805 29.2168C9.54055 29.2168 9.54055 29.3631 9.63805 29.3631H17.9416C18.0878 29.3631 18.3316 29.2168 18.3316 29.0543V21.6932H18.4291Z" fill="#171321"/>
</svg>
